{
    "fileList" : [ "/hpcfs/cepc/higgsgpu/mo_cen/llpGNN/data/growthByParticle7/bkgEEQQWorkspace.csv",                   "/hpcfs/cepc/higgsgpu/mo_cen/llpGNN/data/growthByParticle7/bkgZHWorkspace.csv",
                   "/hpcfs/cepc/higgsgpu/mo_cen/llpGNN/data/growthByParticle7/bkgCSCSWorkspace.csv",                   "/hpcfs/cepc/higgsgpu/mo_cen/llpGNN/data/growthByParticle7/bkgUUDDWorkspace.csv",
                   "/hpcfs/cepc/higgsgpu/mo_cen/llpGNN/data/growthByParticle7/signal4JZbjbjWorkspace_tau_10.csv",    "/hpcfs/cepc/higgsgpu/mo_cen/llpGNN/data/growthByParticle7/signal4JZvvWorkspace_tau_10.csv" ],
    "labelList" : [ 0,  0,  1,  1,  2,  2],

    "batch_size" : 64,

    "num_epochs" : 5,

    "lr" : 1e-4,

    "lr_list" : [1e-4, 1e-4, 1e-5, 1e-5, 1e-6],

    "logDir" : "./",

    "nData" : 100000,

    "n_hidden" : 50,

    "n_layers" : 50

}
